{
  "Deploy": {
    "Project": {
      "Name": "routehijackingv9sergiu",
      "Alias": "routehijackingv9sergiu",
      "Id": "b394a89a-397b-4776-a825-4580cb7ffd1d",
      "Workspaces": [
        {
          "Id": "3192a446-60cd-4908-828a-315124a24695",
          "Name": "Live",
          "Type": "live",
          "Url": "https://routehijackingv9sergiu.euwest01.umbraco.io"
        }
      ]
    },
    "Settings": {
      "ApiKey": "C76FF069BFEB09F61411F40384D4817CAFDD615E"
    }
  },
  "Identity": {
    "ClientId": "0297c0f6-83ad-4481-9ae2-07a3f5475333",
    "ClientSecret": "Q5~T526ixOHlj47lg7Mu7_.zN1fK.7ua.9",
    "EnvironmentId": "3192a446-60cd-4908-828a-315124a24695",
    "LocalLoginRedirectUri": "https://redirect.identity.umbraco.com"
  }
}